…
``` r
month_df = 
  tibble(
    month = 1:12,
    month_name = month.name
  )

precip_df = 
  bind_rows(precip_2018, precip_2017)

left_join(precip_df, month_df, by = "month")
```

    ## # A tibble: 24 x 4
    ##     year month total month_name
    ##    <dbl> <dbl> <dbl> <chr>     
    ##  1  2018     1  0.94 January   
    ##  2  2018     2  4.8  February  
    ##  3  2018     3  2.69 March     
    ##  4  2018     4  4.69 April     
    ##  5  2018     5  9.27 May       
    ##  6  2018     6  4.77 June      
    ##  7  2018     7 10.2  July      
    ##  8  2018     8  6.45 August    
    ##  9  2018     9 10.5  September 
    ## 10  2018    10  2.12 October   
    ## # … with 14 more rows
…
``` r
left_join(pols_df, month_df, by = "month") %>% 
  relocate(year, month_name) %>% 
  select(-month) %>% 
  mutate()
```

    ## # A tibble: 1,644 x 11
    ##     year month_name   day gov_gop sen_gop rep_gop gov_dem sen_dem rep_dem
    ##    <int> <chr>      <int>   <dbl>   <dbl>   <dbl>   <dbl>   <dbl>   <dbl>
    ##  1  1947 January       15      23      51     253      23      45     198
    ##  2  1947 January       15      23      51     253      23      45     198
    ##  3  1947 February      15      23      51     253      23      45     198
    ##  4  1947 February      15      23      51     253      23      45     198
    ##  5  1947 March         15      23      51     253      23      45     198
    ##  6  1947 March         15      23      51     253      23      45     198
    ##  7  1947 April         15      23      51     253      23      45     198
    ##  8  1947 April         15      23      51     253      23      45     198
    ##  9  1947 May           15      23      51     253      23      45     198
    ## 10  1947 May           15      23      51     253      23      45     198
    ## # … with 1,634 more rows, and 2 more variables: .values <chr>, president <dbl>

``` r
pols_df
```

    ## # A tibble: 1,644 x 11
    ##     year month   day gov_gop sen_gop rep_gop gov_dem sen_dem rep_dem .values
    ##    <int> <int> <int>   <dbl>   <dbl>   <dbl>   <dbl>   <dbl>   <dbl> <chr>  
    ##  1  1947     1    15      23      51     253      23      45     198 gop    
    ##  2  1947     1    15      23      51     253      23      45     198 dem    
    ##  3  1947     2    15      23      51     253      23      45     198 gop    
    ##  4  1947     2    15      23      51     253      23      45     198 dem    
    ##  5  1947     3    15      23      51     253      23      45     198 gop    
    ##  6  1947     3    15      23      51     253      23      45     198 dem    
    ##  7  1947     4    15      23      51     253      23      45     198 gop    
    ##  8  1947     4    15      23      51     253      23      45     198 dem    
    ##  9  1947     5    15      23      51     253      23      45     198 gop    
    ## 10  1947     5    15      23      51     253      23      45     198 dem    
    ## # … with 1,634 more rows, and 1 more variable: president <dbl>
